{
    "baby": {
        "car seats & strollers": {
            "words": ["chicco", "graco", "evenflo", "baby jogger", "car seat", "stroller"],
            "excluded": []
        },
        "clothing": {
            "words": ["pajama", "shorts", "shirt", "onesie", "romper", "one piece", "bodysuit", "top", "bottom", "sneakers", "dress", "hat", "gown"],
            "excluded": []
        },
        "diapering & bath": {
            "words": ["huggies", "papmers", "up&up", "diaper", "wipes", "powder", "wash", "diaper rash cream"],
            "excluded": []
        },
        "nursery & feeding": {
            "words": ["baby delight", "delta children", "gerber", "similac", "earth's best", "pediasure", "nursery", "crib", "drawer", "dresser", "toddler bed", "sleeper"],
            "excluded": []
        },
        "toys": {
            "words": ["playset", "play", "bike"],
            "excluded": ["bike shorts"]
        }
    },
    "beauty": {
        "body": {
            "words": ["body", "bubble bath", "butter", "conditioner", "scrub", "shea", "shampoo", "shave cream", "hand cream", "foot cream", "kukui cream", "shower", "sleeping cream", "strobing cream", "coffee cream", "day cream", "night cream", "cream wash", "soft wax", "hard wax", "microwave wax", "honee wax", "ointment", "spf", "hand", "bath salt", "massage oil", "bath", "soap", "sponge", "oil"],
            "excluded": []
        },
        "brushes & tools": {
            "words": ["blender", "brush", "eraser", "massager", "hair dryer", "dryer", "wide iron", "hot rollers", "warmer"],
            "excluded": []
        },
        "face": {
            "words": ["face", "acne", "botox", "facial", "Microdermabrasion", "nuface", "peel", "peels", "chemical", "serum", "skin", "skincare", "mask", "moisturizer", "face cream", "eye cream", "wrinkle cream", "spf", "foaming wash", "cleanser"],
            "excluded": []
        },
        "fragrances": {
            "words": ["parfum"],
            "excluded": []
        },
        "hair": {
            "words": ["hair", "laser", "hair bleaching", "hair color", "shaving", "sugaring", "threading", "waxing", "blowout", "braid", "haircut", "extensions", "highlights", "lowlights", "updo", "volume", "volumizing", "styling", "detangle"],
            "excluded": []
        },
        "makeup": {
            "words": ["makeup", "bridal", "eyelash", "latisse", "microblading", "palette", "mist", "foundation", "powder", "pencil", "contour", "eyeliner", "eye gloss", "liner", "liquid liner", "ink liner", "lipstick", "lip gloss", "lip glaze", "lip oil", "gloss", "eyeshadow", "lash", "concealer", "mascara", "bb cream", "primer", "brow", "pomade", "blush", "lip color", "shadow stick", "highlighter", "eye marker", "illuminator", "pigment", "shadow", "bronzer"],
            "excluded": ["butter"]
        },
        "nails": {
            "words": ["acrylic", "gel", "manicure", "pedicure", "top coat"],
            "excluded": []
        },
        "kits & accessories": {
            "words": ["set", "kit", "pack", "scrunchie", "headband", "elastics", "visor", "clip"],
            "excluded": []
        }
    },
    "clothing": {
        "headgear": {
            "words": ["hat", "beanie", "headband", "head tie", "scarf"],
            "excluded": []
        },
        "outerwear": {
            "words": ["coat", "jacket", "sweater", "sweatshirt", "hoodie", "vest", "robe", "poncho", "windbreaker"],
            "excluded": ["coated"]
        },
        "tops": {
            "words": ["shirt", "crop", "t-shirt", "tshirt", "top", "blouse", "tube"],
            "excluded": ["cropper cargo", "crop pocket", "high-top", "high-rise crop", "crop high-rise", "top bar", "relaxed crop distressed", "crop taper", "stretched cropped", "sweatshirt", "high-top"]
        },
        "bottoms": {
            "words": ["pant", "trouser", "shorts", "jean", "skirt", "skort", "sarong", "tight", "legging", "sock"],
            "excluded": []
        },
        "full_body": {
            "words": ["dress", "swimsuit", "wetsuit", "bikini", "onesie", "jumpsuit", "bodysuit", "romper"],
            "excluded": []
        },
        "undergarments": {
            "words": ["underwear", "underpants", "boxers", "briefs", "bra", "panties", "panty", "lingerie", "thong", "g-string", "cheekster"],
            "excluded": ["bracelet", "bra top", "thong kitten"]
        },
        "footwear": {
            "words": ["sock", "shoe", "boot", "booties", "flop", "sneaker", "heel"],
            "excluded": ["boot cut", "bracelet"]
        },
        "accessories": {
            "words": ["belt", "watch", "sunglasses", "glasses", "bracelet", "glove"],
            "excluded": ["belted"]
        }
    },
    "electronics & video games": {
        "accessories": {
            "words": ["remote", "charging", "case", "powerport", "power port", "cable", "car charger", "wall charger", "portable charger", "power bank", "outlet", "memory card", "surface pen", "battery", "coxial", "toslink"],
            "excluded": []
        },
        "cell phones & tablets": {
            "words": ["phone", "tablet", "ipad", "samsung galaxy", "cellular", "tracfone", "mobile", "total wireless", "red pocket", "freedompop", "adapter"],
            "excluded": []
        },
        "calculators": {
            "words": ["calculator", "texas instrument", "scientific"],
            "excluded": []
        },
        "cameras": {
            "words": ["camera", "dsl", "megapixel", "gopro", "nikon", "canon", "kodak", "tamron", "flashpoint", "fujifilm", "router", "tripod", "lens", "camcorder"],
            "excluded": []
        },
        "computers & accessories": {
            "words": ["acer", "computer", "desktop", "laptop", "pc", "chromebook", "notebook", "monitor", "mouse", "keyboard", "flash drive", "hard drive", "solid state drive", "sandisk", "photoshop", "adobe", "tb", "sata"],
            "excluded": []
        },
        "drones": {
            "words": ["drone", "quadcopter"],
            "excluded": []
        },
        "printing": {
            "words": ["printer", "epson", "photo page"],
            "excluded": []
        },
        "smart home": {
            "words": ["nest", "ring", "google home", "google assistant", "google smart", "amazon echo", "smart clock", "video doorbell"],
            "excluded": []
        },
        "sound": {
            "words": ["speaker", "headphones", "airpods", "sound bar", "soundbar", "bose", "sonos", "dolby", "surround sound", "earbud", "subwoofer", "tweater", "headset", "singing machine", "radio", "record player", "digital piano"],
            "excluded": []
        },
        "tvs & home theater": {
            "words": ["tv", "4k", "oled", "lcd", "bluray", "blu-ray", "hdmi"],
            "excluded": []
        },
        "video games": {
            "words": ["xbox", "playstation", "ps3", "ps4", "psp", "nintendo", "retro-bit", "gamepad"],
            "excluded": []
        },
        "wearables": {
            "words": ["watch", "fitbit", "tile"],
            "excluded": []
        }
    },
    "furniture": {},
    "home": {},
    "kitchen & dining": {},
    "patio & garden": {
        "equipment & accessories": {
            "words": ["gate", "wastebasket", "waste container", "trashcan", "trash can", "trash container", "ashtray", "generator", "torch", "drive pump", "pump", "water removal system", "rake", "blower", "leaf blower", "auger", "chainsaw", "chain saw", "fan", "power washer", "pressure washer", "shovel", "cable", "cart", "wagon", "hose", "netting", "hedge trimmer", "gas can", "gas container", "fuel container", "fuel can", "hard surface sweeper", "mosquito", "bucket", "air conditioner cover", "trailer", "tool locker", "thermometer"],
            "excluded": []
        },
        "gardening & landscaping": {
            "words": ["landscaping", "plant", "lawn", "garden", "gardener", "soil", "landscape", "bird feeder", "birdhouse", "bird house", "edging", "compost", "gutter", "mailbox", "grow light", "hydroponic", "aerator", "seedling", "propagation", "peg stakes", "mixing tub", "wind chime", "wind spinner", "foot bridge", "fountain", "statue", "beehive", "beekeeping", "beekeeper", "fence", "weed"],
            "excluded": []
        },
        "grilling & cooking": {
            "words": ["grill", "stove", "cooking", "boiling", "skewer", "charcoal", "wood chips", "wood pellets", "bbq", "rotisserie", "smoker", "air fryer", "turkey fryer", "cutting board", "dehydrator", "apron", "propane"],
            "excluded": []
        },
        "fire pits & heaters": {
            "words": ["fire pit", "heater", "campfire", "firestarter", "firewood", "log rack"],
            "excluded": []
        },
        "patio furniture": {
            "words": ["chair", "seat", "canopy", "table", "shelf", "shelves", "shelving", "canvas table", "umbrella", "sun shade", "tarp", "hammock", "furniture cover", "storage unit", "storage cabinet", "storage container", "storage bin", "storage organizer", "storage tote", "storage box", "tool cabinet", "shed", "gazebo", "swing", "drink holder"],
            "excluded": []
        },
        "patio sets": {
            "words": ["patio set", "patio dining set", "patio bistro set", "outdoor conversation set", "2pk plastic patio", "4pk plasic pation dining", "4pk plastic patio barstool", "4pk plastic patio dining chair", "patio sectional set"],
            "excluded": []
        },
        "planters": {
            "words": ["planter", "potting", "pot", "flower box"],
            "excluded": []
        },
        "outdoor cushions & pillows": {
            "words": ["outdoor pillow", "outdoor cushion", "bench cushion"],
            "excluded": []
        },
        "outdoor lighting": {
            "words": ["wick", "off candle", "latern", "landscape light", "led rope lights", "outdoor rope lights", "outdoor wall light", "spot light", "motion sensor light", "outdoor torches", "sun panel", "solar", "led"],
            "excluded": []
        },
        "outdoor rugs": {
            "words": ["outdoor rug", "outdoor area rug"],
            "excluded": []
        }
    },
    "personal care": {},
    "pets": {},
    "school & office": {},
    "sports & outdoors": {
        "bikes & scooters": {
            "words": ["bike", "bicycle", "tricycle", "trike", "scooter", "razor", "ride-on", "buggy", "little tikes", "kiddeland", "radio flyer", "wagon"],
            "excluded": []
        },
        "camping & outdoors": {
            "words": ["camping", "tent", "lantern", "picnic blanket", "cooler", "mattress", "fishing", "container", "tank", "kayak", "swing", "canopy", "straws", "shot", "jar", "drinkware", "straw", "mug"],
            "excluded": []
        },
        "exercise": {
            "words": ["exercise", "massage", "fitbit", "tile", "yoga", "gym", "fitness", "everlast", "barbell", "mma", "drawback", "training", "bottle", "ballance trainer"],
            "excluded": []
        },
        "sports equipment": {
            "words": ["soccer", "baseball", "football", "basketball", "golf", "volleyball", "skateboard", "rollerblade", "cleats", "glove", "net", "bottle", "shinguards", "dartboard", "mlb", "nfl", "nhl", "nba", "mls", "ncaa", "atlanta braves","miami marlins","new york mets","philadelphia phillies","washington nationals","chicago cubs","cincinnati reds","milwaukee brewers","pittsburgh pirates","st. louis cardinals","arizona diamondbacks","colorado rockies","los angeles dodgers","san diego padres","san francisco giants","baltimore orioles","boston red sox","new york yankees","tampa bay rays","toronto blue jays","chicago white sox","cleveland indians","detroit tigers","kansas city royals","minnesota twins","houston astros","los angeles angels","oakland athletics","seattle mariners","texas rangers","buffalo bisons","lehigh valley ironpigs","pawtucket red sox[a]","rochester red wings","scranton/wilkes-barre railriders","syracuse mets","charlotte knights","durham bulls","gwinnett stripers","norfolk tides","columbus clippers","indianapolis indians","louisville bats","toledo mud hens","iowa cubs","memphis redbirds","nashville sounds","omaha storm chasers","oklahoma city dodgers","round rock express","san antonio missions","wichita wind surge","fresno grizzlies","reno aces","sacramento river cats","tacoma rainiers","albuquerque isotopes","el paso chihuahuas","las vegas aviators","salt lake bees","binghamton rumble ponies","hartford yard goats","new hampshire fisher cats","portland sea dogs","reading fightin phils","trenton thunder","akron rubberducks","altoona curve","bowie baysox","erie seawolves","harrisburg senators","richmond flying squirrels","birmingham barons","chattanooga lookouts","jackson generals","rocket city trash pandas[a]","tennessee smokies","biloxi shuckers","jacksonville jumbo shrimp","mississippi braves","montgomery biscuits","pensacola blue wahoos","arkansas travelers","northwest arkansas naturals","springfield cardinals","tulsa drillers","amarillo sod poodles","corpus christi hooks","frisco roughriders","midland rockhounds","modesto nuts","san jose giants","stockton ports","visalia rawhide","inland empire 66ers","lake elsinore storm","lancaster jethawks","rancho cucamonga quakes","frederick keys","fredericksburg nationals[a]","lynchburg hillcats","salem red sox","wilmington blue rocks","carolina mudcats","down east wood ducks","fayetteville woodpeckers","myrtle beach pelicans","winston-salem dash","clearwater threshers","daytona tortugas","dunedin blue jays","florida fire frogs","lakeland flying tigers","tampa tarpons","bradenton marauders","charlotte stone crabs","fort myers mighty mussels[a]","jupiter hammerheads","palm beach cardinals","st. lucie mets","bowling green hot rods","dayton dragons","fort wayne tincaps","great lakes loons","lake county captains","lansing lugnuts","south bend cubs","west michigan whitecaps","beloit snappers","burlington bees","cedar rapids kernels","clinton lumberkings","kane county cougars","peoria chiefs","quad cities river bandits","wisconsin timber rattlers","delmarva shorebirds","greensboro grasshoppers","hagerstown suns","hickory crawdads","kannapolis cannon ballers[a]","lakewood blueclaws","west virginia power","asheville tourists","augusta greenjackets","charleston riverdogs","columbia fireflies","greenville drive","lexington legends","rome braves","aberdeen ironbirds","brooklyn cyclones","hudson valley renegades","staten island yankees","auburn doubledays","batavia muckdogs","mahoning valley scrappers","state college spikes","west virginia black bears","williamsport crosscutters","lowell spinners","norwich sea unicorns[a]","tri-city valleycats","vermont lake monsters","everett aquasox","spokane indians","tri-city dust devils","vancouver canadians","boise hawks","eugene emeralds","hillsboro hops","salem-keizer volcanoes","bluefield blue jays","burlington royals","danville braves","princeton rays","pulaski yankees","bristol pirates","elizabethton twins","greeneville astros","johnson city cardinals","kingsport mets","billings mustangs","great falls voyagers","idaho falls chukars","missoula osprey","grand junction rockies","ogden raptors","orem owlz","rocky mountain vibes","chicago dogs","fargo-moorhead redhawks","gary southshore railcats","milwaukee milkmen","st. paul saints","winnipeg goldeyes","cleburne railroaders","kansas city t-bones","lincoln saltdogs","sioux city explorers","sioux falls canaries","texas airhogs","lancaster barnstormers","southern maryland blue crabs","sugar land skeeters","york revolution","high point rockers","long island ducks","pennsylvania road warriors","somerset patriots","lake erie crushers","new jersey jackals","québec capitales","rockland boulders","sussex county miners","trois-rivières aigles","washington wild things","evansville otters","florence y'alls","gateway grizzlies","joliet slammers","schaumburg boomers","southern illinois miners","windy city thunderbolts","napa silverados","sonoma stompers","vallejo admirals","alpine cowboys","garden city wind","roswell invaders","santa fe fuego","trinidad triggers","tucson saguaros","bakersfield train robbers","martinez sturgeon","monterey amberjacks","san rafael pacifics","santa cruz seaweed","wasco reserve","boston celtics","brooklyn nets","new york knicks","philadelphia 76ers","toronto raptors","chicago bulls","cleveland cavaliers","detroit pistons","indiana pacers","milwaukee bucks","atlanta hawks","charlotte hornets","miami heat","orlando magic","washington wizards","denver nuggets","minnesota timberwolves","oklahoma city thunder","portland trail blazers","utah jazz","golden state warriors","los angeles clippers","los angeles lakers","phoenix suns","sacramento kings","dallas mavericks","houston rockets","memphis grizzlies","new orleans pelicans","san antonio spurs","edmonton stingers","fraser valley bandits","guelph nighthawks","hamilton honey badgers","niagara river lions","ottawa blackjacks","saskatchewan rattlers","kw titans","london lightning","sudbury five","windsor express","halifax hurricanes","island storm","moncton magic","st. john's edge","delaware blue coats","long island nets","maine red claws","raptors 905","westchester knicks","canton charge","fort wayne mad ants","grand rapids drive","windy city bulls","wisconsin herd","capital city go-go","college park skyhawks","erie bayhawks[a]","greensboro swarm","lakeland magic","iowa wolves","memphis hustle","oklahoma city blue","sioux falls skyforce","austin spurs","rio grande valley vipers","salt lake city stars","texas legends","agua caliente clippers","northern arizona suns","santa cruz warriors","south bay lakers","stockton kings","atlanta dream","chicago sky","connecticut sun","indiana fever","new york liberty","washington mystics","dallas wings","las vegas aces","los angeles sparks","minnesota lynx","phoenix mercury","seattle storm","buffalo bills","miami dolphins","new england patriots","new york jets","baltimore ravens","cincinnati bengals","cleveland browns","pittsburgh steelers","houston texans","indianapolis colts","jacksonville jaguars","tennessee titans","denver broncos","kansas city chiefs","las vegas raiders","los angeles chargers","dallas cowboys","new york giants","philadelphia eagles","washington football team","chicago bears","detroit lions","green bay packers","minnesota vikings","atlanta falcons","carolina panthers","new orleans saints","tampa bay buccaneers","arizona cardinals","los angeles rams","san francisco 49ers","seattle seahawks","hamilton tiger-cats","montreal alouettes","ottawa redblacks","toronto argonauts","bc lions","calgary stampeders","edmonton football team","saskatchewan roughriders","winnipeg blue bombers","arizona rattlers","bismarck bucks","cedar rapids river kings","duke city gladiators","frisco fighters","green bay blizzard","iowa barnstormers","oakland panthers","quad city steamwheelers","san diego strike force","sioux falls storm","spokane shock","tucson sugar skulls","omaha beef","salina liberty","sioux city bandits","wichita force","amarillo venom","oklahoma flying aces","west texas warbirds","carolina cobras","columbus lions","jacksonville sharks","jersey flight","massachusetts pirates","orlando predators","west virginia roughriders","carolina cowboyz","carolina predators","charlotte thunder","central penn chargers","indianapolis enforcers","jersey bearcats","maryland eagles","music city fire","pennsylvania union","reading raptors","south florida thunder","tampa bay tornadoes","west michigan ironmen","western maryland warriors","idaho horsemen","wenatchee valley skyhawks","yakima canines","atlanta empire","chicago blitz","kansas city force","omaha red devils","austin sound","denver rush","los angeles black storm","seattle thunder","carolina hurricanes","columbus blue jackets","new jersey devils","new york islanders","new york rangers","philadelphia flyers","pittsburgh penguins","washington capitals","boston bruins","buffalo sabres","detroit red wings","florida panthers","montreal canadiens","ottawa senators","tampa bay lightning","toronto maple leafs","chicago blackhawks","colorado avalanche","dallas stars","minnesota wild","nashville predators","st. louis blues","winnipeg jets","anaheim ducks","arizona coyotes","calgary flames","edmonton oilers","los angeles kings","san jose sharks","vancouver canucks","vegas golden knights","bridgeport sound tigers","charlotte checkers","hartford wolf pack","hershey bears","lehigh valley phantoms","providence bruins","springfield thunderbirds","wilkes-barre/scranton penguins","belleville senators","binghamton devils","cleveland monsters","laval rocket","rochester americans","syracuse crunch","toronto marlies","utica comets","chicago wolves","grand rapids griffins","iowa wild","manitoba moose","milwaukee admirals","rockford icehogs","san antonio rampage","texas stars","bakersfield condors","colorado eagles","ontario reign","san diego gulls","san jose barracuda","stockton heat","tucson roadrunners","adirondack thunder","brampton beast","maine mariners","newfoundland growlers","reading royals","worcester railers","atlanta gladiators","florida everblades","greenville swamp rabbits","jacksonville icemen","norfolk admirals","orlando solar bears","south carolina stingrays","cincinnati cyclones","fort wayne komets","indy fuel","kalamazoo wings","toledo walleye","wheeling nailers","allen americans","idaho steelheads","kansas city mavericks","rapid city rush","tulsa oilers","utah grizzlies","wichita thunder","birmingham bulls","evansville thunderbolts","fayetteville marksmen","huntsville havoc","knoxville ice bears","macon mayhem","pensacola ice flyers","peoria rivermen","quad city storm","roanoke rail yard dawgs","danbury hat tricks","delaware thunder","elmira enforcers","mentor ice breakers","watertown wolves","battle creek rumble bees","carolina thunderbirds","columbus river dragons","danville dashers","port huron prowlers","jonquière marquis","les pétroliers du nord","rivière-du-loup 3l","saint-georges cool fm 103.5","sorel-tracy éperviers","thetford assurancia","boston pride","buffalo beauts","connecticut whale","metropolitan riveters","minnesota whitecaps","toronto six","buffalo bandits","halifax thunderbirds","rochester knighthawks","toronto rock","georgia swarm","new england black wolves","new york riptide","philadelphia wings","calgary roughnecks","colorado mammoth","san diego seals","saskatchewan rush","vancouver warriors","boston cannons","chesapeake bayhawks","connecticut hammerheads","denver outlaws","new york lizards","philadelphia barrage","toronto wolfpack","boston thirteens","brooklyn kings","delaware black foxes","lakeland renegades","new york knights","northern virginia eagles","philadelphia fight","white plains wombats","atlanta rhinos","jacksonville axemen","southwest florida copperheads","tampa mayhem","new england free jacks","new orleans gold","old glory dc","rugby united new york","rugby atl","toronto arrows","austin gilgronis","colorado raptors","houston sabercats","san diego legion","seattle seawolves","utah warriors","atlanta united fc","chicago fire fc","columbus crew sc","d.c. united","fc cincinnati","inter miami cf","montreal impact","new england revolution","new york city fc","new york red bulls","orlando city sc","philadelphia union","toronto fc","colorado rapids","fc dallas","houston dynamo","la galaxy","los angeles fc","minnesota united fc","nashville sc","portland timbers","real salt lake","san jose earthquakes","seattle sounders fc","sporting kansas city","vancouver whitecaps fc","atlético ottawa","cavalry fc","fc edmonton","forge fc","hfx wanderers fc","pacific fc","valour fc","york9 fc","atlanta united 2","birmingham legion fc","charleston battery","charlotte independence","hartford athletic","indy eleven","loudoun united fc","louisville city fc","memphis 901 fc","miami fc","new york red bulls ii","north carolina fc","philadelphia union ii","pittsburgh riverhounds sc","saint louis fc","sporting kansas city ii","tampa bay rowdies","austin bold fc","colorado springs switchbacks fc","el paso locomotive fc","la galaxy ii","las vegas lights fc","new mexico united","oklahoma city energy fc","orange county sc","phoenix rising fc","portland timbers 2","real monarchs","reno 1868 fc","rio grande valley fc toros","sacramento republic fc[a]","san antonio fc","san diego loyal sc","tacoma defiance","fc tulsa","chattanooga red wolves sc","fort lauderdale cf","forward madison fc","greenville triumph sc","north texas sc","orlando city b","new england revolution ii","richmond kickers","tormenta fc","toronto fc ii","fc tucson","union omaha","chicago red stars","houston dash","north carolina courage","ol reign[a]","orlando pride","portland thorns fc","sky blue fc","utah royals fc","washington spirit","baltimore blast","florida tropics sc","harrisburg heat","kansas city comets","milwaukee wave","orlando seawolves","rochester lancers","st. louis ambush","utica city fc","dallas sidekicks","mesquite outlaws","monterrey flash","ontario fury[3]","san diego sockers","sonora suns","tacoma stars","turlock cal express","aussie peppers","canadian wild","chicago bandits","chicago smash","new york empire","orange county breakers","orlando storm","philadelphia freedoms","san diego aviators","springfield lasers","vegas rollers","washington kastles","atlanta hustle","dc breeze","philadelphia phoenix","pittsburgh thunderbirds","raleigh flyers","tampa bay cannons","chicago wildfire","detroit mechanix","indianapolis alleycats","madison radicals","minnesota wind chill","boston glory","montreal royal","new york empire","ottawa outlaws","toronto rush","austin sol","dallas roughnecks","los angeles aviators","san diego growlers","san jose spiders","seattle cascades"],
            "excluded": ["inflatable"]
        },
        "swimming": {
            "words": ["swim", "intex", "bestway", "trc", "pool", "goggles", "pool filter", "waterslide", "snorkel", "fins", "spa", "hot tub"],
            "excluded": []
        }
    },
    "toys": {},
    "excluded_words": ["chambray", "brace", "brave", "braves", "brasilia", "braelynn", "brami", "brand", "youtube", "that"]
}